%YAML 1.1
%TAG !u! tag:unity3d.com,2011:
--- !u!1 &3485164701291648547
GameObject:
  m_ObjectHideFlags: 0
  m_CorrespondingSourceObject: {fileID: 0}
  m_PrefabInstance: {fileID: 0}
  m_PrefabAsset: {fileID: 0}
  serializedVersion: 6
  m_Component:
  - component: {fileID: 3323888188392438154}
  - component: {fileID: 642346735699985603}
  m_Layer: 31
  m_Name: TilesetWalls
  m_TagString: Untagged
  m_Icon: {fileID: 0}
  m_NavMeshLayer: 0
  m_StaticEditorFlags: 0
  m_IsActive: 1
--- !u!4 &3323888188392438154
Transform:
  m_ObjectHideFlags: 0
  m_CorrespondingSourceObject: {fileID: 0}
  m_PrefabInstance: {fileID: 0}
  m_PrefabAsset: {fileID: 0}
  m_GameObject: {fileID: 3485164701291648547}
  m_LocalRotation: {x: 0, y: 0, z: 0, w: 1}
  m_LocalPosition: {x: 0, y: 0, z: 0}
  m_LocalScale: {x: 1, y: 1, z: 1}
  m_Children:
  - {fileID: 3594249372617993633}
  m_Father: {fileID: 0}
  m_RootOrder: 0
  m_LocalEulerAnglesHint: {x: 0, y: 0, z: 0}
--- !u!156049354 &642346735699985603
Grid:
  m_ObjectHideFlags: 0
  m_CorrespondingSourceObject: {fileID: 0}
  m_PrefabInstance: {fileID: 0}
  m_PrefabAsset: {fileID: 0}
  m_GameObject: {fileID: 3485164701291648547}
  m_Enabled: 1
  m_CellSize: {x: 1, y: 1, z: 0}
  m_CellGap: {x: 0, y: 0, z: 0}
  m_CellLayout: 0
  m_CellSwizzle: 0
--- !u!1 &4907356462965374099
GameObject:
  m_ObjectHideFlags: 0
  m_CorrespondingSourceObject: {fileID: 0}
  m_PrefabInstance: {fileID: 0}
  m_PrefabAsset: {fileID: 0}
  serializedVersion: 6
  m_Component:
  - component: {fileID: 3594249372617993633}
  - component: {fileID: 8568213493814452908}
  - component: {fileID: 137610996573498369}
  m_Layer: 31
  m_Name: Layer1
  m_TagString: Untagged
  m_Icon: {fileID: 0}
  m_NavMeshLayer: 0
  m_StaticEditorFlags: 0
  m_IsActive: 1
--- !u!4 &3594249372617993633
Transform:
  m_ObjectHideFlags: 0
  m_CorrespondingSourceObject: {fileID: 0}
  m_PrefabInstance: {fileID: 0}
  m_PrefabAsset: {fileID: 0}
  m_GameObject: {fileID: 4907356462965374099}
  m_LocalRotation: {x: -0, y: -0, z: -0, w: 1}
  m_LocalPosition: {x: 0, y: 0, z: 0}
  m_LocalScale: {x: 1, y: 1, z: 1}
  m_Children: []
  m_Father: {fileID: 3323888188392438154}
  m_RootOrder: 0
  m_LocalEulerAnglesHint: {x: 0, y: 0, z: 0}
--- !u!1839735485 &8568213493814452908
Tilemap:
  m_ObjectHideFlags: 0
  m_CorrespondingSourceObject: {fileID: 0}
  m_PrefabInstance: {fileID: 0}
  m_PrefabAsset: {fileID: 0}
  m_GameObject: {fileID: 4907356462965374099}
  m_Enabled: 1
  m_Tiles:
  - first: {x: -3, y: -2, z: 0}
    second:
      serializedVersion: 2
      m_TileIndex: 55
      m_TileSpriteIndex: 55
      m_TileMatrixIndex: 0
      m_TileColorIndex: 44
      m_TileObjectToInstantiateIndex: 65535
      m_AllTileFlags: 1073741825
  - first: {x: -3, y: -1, z: 0}
    second:
      serializedVersion: 2
      m_TileIndex: 51
      m_TileSpriteIndex: 51
      m_TileMatrixIndex: 0
      m_TileColorIndex: 44
      m_TileObjectToInstantiateIndex: 65535
      m_AllTileFlags: 1073741825
  - first: {x: -2, y: -1, z: 0}
    second:
      serializedVersion: 2
      m_TileIndex: 52
      m_TileSpriteIndex: 52
      m_TileMatrixIndex: 0
      m_TileColorIndex: 44
      m_TileObjectToInstantiateIndex: 65535
      m_AllTileFlags: 1073741825
  - first: {x: -1, y: -1, z: 0}
    second:
      serializedVersion: 2
      m_TileIndex: 53
      m_TileSpriteIndex: 53
      m_TileMatrixIndex: 0
      m_TileColorIndex: 44
      m_TileObjectToInstantiateIndex: 65535
      m_AllTileFlags: 1073741825
  - first: {x: 0, y: -1, z: 0}
    second:
      serializedVersion: 2
      m_TileIndex: 54
      m_TileSpriteIndex: 54
      m_TileMatrixIndex: 0
      m_TileColorIndex: 44
      m_TileObjectToInstantiateIndex: 65535
      m_AllTileFlags: 1073741825
  - first: {x: -3, y: 0, z: 0}
    second:
      serializedVersion: 2
      m_TileIndex: 47
      m_TileSpriteIndex: 47
      m_TileMatrixIndex: 0
      m_TileColorIndex: 44
      m_TileObjectToInstantiateIndex: 65535
      m_AllTileFlags: 1073741825
  - first: {x: -2, y: 0, z: 0}
    second:
      serializedVersion: 2
      m_TileIndex: 48
      m_TileSpriteIndex: 48
      m_TileMatrixIndex: 0
      m_TileColorIndex: 44
      m_TileObjectToInstantiateIndex: 65535
      m_AllTileFlags: 1073741825
  - first: {x: -1, y: 0, z: 0}
    second:
      serializedVersion: 2
      m_TileIndex: 49
      m_TileSpriteIndex: 49
      m_TileMatrixIndex: 0
      m_TileColorIndex: 44
      m_TileObjectToInstantiateIndex: 65535
      m_AllTileFlags: 1073741825
  - first: {x: 0, y: 0, z: 0}
    second:
      serializedVersion: 2
      m_TileIndex: 50
      m_TileSpriteIndex: 50
      m_TileMatrixIndex: 0
      m_TileColorIndex: 44
      m_TileObjectToInstantiateIndex: 65535
      m_AllTileFlags: 1073741825
  - first: {x: -3, y: 1, z: 0}
    second:
      serializedVersion: 2
      m_TileIndex: 20
      m_TileSpriteIndex: 20
      m_TileMatrixIndex: 0
      m_TileColorIndex: 44
      m_TileObjectToInstantiateIndex: 65535
      m_AllTileFlags: 1073741825
  - first: {x: -2, y: 1, z: 0}
    second:
      serializedVersion: 2
      m_TileIndex: 46
      m_TileSpriteIndex: 46
      m_TileMatrixIndex: 0
      m_TileColorIndex: 44
      m_TileObjectToInstantiateIndex: 65535
      m_AllTileFlags: 1073741825
  - first: {x: -1, y: 1, z: 0}
    second:
      serializedVersion: 2
      m_TileIndex: 12
      m_TileSpriteIndex: 12
      m_TileMatrixIndex: 0
      m_TileColorIndex: 44
      m_TileObjectToInstantiateIndex: 65535
      m_AllTileFlags: 1073741825
  - first: {x: 0, y: 1, z: 0}
    second:
      serializedVersion: 2
      m_TileIndex: 3
      m_TileSpriteIndex: 3
      m_TileMatrixIndex: 0
      m_TileColorIndex: 44
      m_TileObjectToInstantiateIndex: 65535
      m_AllTileFlags: 1073741825
  - first: {x: -3, y: 2, z: 0}
    second:
      serializedVersion: 2
      m_TileIndex: 41
      m_TileSpriteIndex: 41
      m_TileMatrixIndex: 0
      m_TileColorIndex: 44
      m_TileObjectToInstantiateIndex: 65535
      m_AllTileFlags: 1073741825
  - first: {x: -2, y: 2, z: 0}
    second:
      serializedVersion: 2
      m_TileIndex: 42
      m_TileSpriteIndex: 42
      m_TileMatrixIndex: 0
      m_TileColorIndex: 44
      m_TileObjectToInstantiateIndex: 65535
      m_AllTileFlags: 1073741825
  - first: {x: -1, y: 2, z: 0}
    second:
      serializedVersion: 2
      m_TileIndex: 8
      m_TileSpriteIndex: 8
      m_TileMatrixIndex: 0
      m_TileColorIndex: 44
      m_TileObjectToInstantiateIndex: 65535
      m_AllTileFlags: 1073741825
  - first: {x: 0, y: 2, z: 0}
    second:
      serializedVersion: 2
      m_TileIndex: 7
      m_TileSpriteIndex: 7
      m_TileMatrixIndex: 0
      m_TileColorIndex: 44
      m_TileObjectToInstantiateIndex: 65535
      m_AllTileFlags: 1073741825
  - first: {x: 1, y: 2, z: 0}
    second:
      serializedVersion: 2
      m_TileIndex: 43
      m_TileSpriteIndex: 43
      m_TileMatrixIndex: 0
      m_TileColorIndex: 44
      m_TileObjectToInstantiateIndex: 65535
      m_AllTileFlags: 1073741825
  - first: {x: 2, y: 2, z: 0}
    second:
      serializedVersion: 2
      m_TileIndex: 44
      m_TileSpriteIndex: 44
      m_TileMatrixIndex: 0
      m_TileColorIndex: 44
      m_TileObjectToInstantiateIndex: 65535
      m_AllTileFlags: 1073741825
  - first: {x: 3, y: 2, z: 0}
    second:
      serializedVersion: 2
      m_TileIndex: 45
      m_TileSpriteIndex: 45
      m_TileMatrixIndex: 0
      m_TileColorIndex: 44
      m_TileObjectToInstantiateIndex: 65535
      m_AllTileFlags: 1073741825
  - first: {x: 4, y: 2, z: 0}
    second:
      serializedVersion: 2
      m_TileIndex: 21
      m_TileSpriteIndex: 21
      m_TileMatrixIndex: 0
      m_TileColorIndex: 44
      m_TileObjectToInstantiateIndex: 65535
      m_AllTileFlags: 1073741825
  - first: {x: 5, y: 2, z: 0}
    second:
      serializedVersion: 2
      m_TileIndex: 4
      m_TileSpriteIndex: 4
      m_TileMatrixIndex: 0
      m_TileColorIndex: 44
      m_TileObjectToInstantiateIndex: 65535
      m_AllTileFlags: 1073741825
  - first: {x: 6, y: 2, z: 0}
    second:
      serializedVersion: 2
      m_TileIndex: 9
      m_TileSpriteIndex: 9
      m_TileMatrixIndex: 0
      m_TileColorIndex: 44
      m_TileObjectToInstantiateIndex: 65535
      m_AllTileFlags: 1073741825
  - first: {x: -3, y: 3, z: 0}
    second:
      serializedVersion: 2
      m_TileIndex: 6
      m_TileSpriteIndex: 6
      m_TileMatrixIndex: 0
      m_TileColorIndex: 44
      m_TileObjectToInstantiateIndex: 65535
      m_AllTileFlags: 1073741825
  - first: {x: -2, y: 3, z: 0}
    second:
      serializedVersion: 2
      m_TileIndex: 5
      m_TileSpriteIndex: 5
      m_TileMatrixIndex: 0
      m_TileColorIndex: 44
      m_TileObjectToInstantiateIndex: 65535
      m_AllTileFlags: 1073741825
  - first: {x: -1, y: 3, z: 0}
    second:
      serializedVersion: 2
      m_TileIndex: 22
      m_TileSpriteIndex: 22
      m_TileMatrixIndex: 0
      m_TileColorIndex: 44
      m_TileObjectToInstantiateIndex: 65535
      m_AllTileFlags: 1073741825
  - first: {x: 0, y: 3, z: 0}
    second:
      serializedVersion: 2
      m_TileIndex: 40
      m_TileSpriteIndex: 40
      m_TileMatrixIndex: 0
      m_TileColorIndex: 44
      m_TileObjectToInstantiateIndex: 65535
      m_AllTileFlags: 1073741825
  - first: {x: 1, y: 3, z: 0}
    second:
      serializedVersion: 2
      m_TileIndex: 10
      m_TileSpriteIndex: 10
      m_TileMatrixIndex: 0
      m_TileColorIndex: 44
      m_TileObjectToInstantiateIndex: 65535
      m_AllTileFlags: 1073741825
  - first: {x: 2, y: 3, z: 0}
    second:
      serializedVersion: 2
      m_TileIndex: 11
      m_TileSpriteIndex: 11
      m_TileMatrixIndex: 0
      m_TileColorIndex: 44
      m_TileObjectToInstantiateIndex: 65535
      m_AllTileFlags: 1073741825
  - first: {x: -3, y: 4, z: 0}
    second:
      serializedVersion: 2
      m_TileIndex: 35
      m_TileSpriteIndex: 35
      m_TileMatrixIndex: 0
      m_TileColorIndex: 44
      m_TileObjectToInstantiateIndex: 65535
      m_AllTileFlags: 1073741825
  - first: {x: -2, y: 4, z: 0}
    second:
      serializedVersion: 2
      m_TileIndex: 36
      m_TileSpriteIndex: 36
      m_TileMatrixIndex: 0
      m_TileColorIndex: 44
      m_TileObjectToInstantiateIndex: 65535
      m_AllTileFlags: 1073741825
  - first: {x: -1, y: 4, z: 0}
    second:
      serializedVersion: 2
      m_TileIndex: 37
      m_TileSpriteIndex: 37
      m_TileMatrixIndex: 0
      m_TileColorIndex: 44
      m_TileObjectToInstantiateIndex: 65535
      m_AllTileFlags: 1073741825
  - first: {x: 0, y: 4, z: 0}
    second:
      serializedVersion: 2
      m_TileIndex: 18
      m_TileSpriteIndex: 18
      m_TileMatrixIndex: 0
      m_TileColorIndex: 44
      m_TileObjectToInstantiateIndex: 65535
      m_AllTileFlags: 1073741825
  - first: {x: 1, y: 4, z: 0}
    second:
      serializedVersion: 2
      m_TileIndex: 19
      m_TileSpriteIndex: 19
      m_TileMatrixIndex: 0
      m_TileColorIndex: 44
      m_TileObjectToInstantiateIndex: 65535
      m_AllTileFlags: 1073741825
  - first: {x: 2, y: 4, z: 0}
    second:
      serializedVersion: 2
      m_TileIndex: 38
      m_TileSpriteIndex: 38
      m_TileMatrixIndex: 0
      m_TileColorIndex: 44
      m_TileObjectToInstantiateIndex: 65535
      m_AllTileFlags: 1073741825
  - first: {x: 3, y: 4, z: 0}
    second:
      serializedVersion: 2
      m_TileIndex: 39
      m_TileSpriteIndex: 39
      m_TileMatrixIndex: 0
      m_TileColorIndex: 44
      m_TileObjectToInstantiateIndex: 65535
      m_AllTileFlags: 1073741825
  - first: {x: -3, y: 5, z: 0}
    second:
      serializedVersion: 2
      m_TileIndex: 29
      m_TileSpriteIndex: 29
      m_TileMatrixIndex: 0
      m_TileColorIndex: 44
      m_TileObjectToInstantiateIndex: 65535
      m_AllTileFlags: 1073741825
  - first: {x: -2, y: 5, z: 0}
    second:
      serializedVersion: 2
      m_TileIndex: 30
      m_TileSpriteIndex: 30
      m_TileMatrixIndex: 0
      m_TileColorIndex: 44
      m_TileObjectToInstantiateIndex: 65535
      m_AllTileFlags: 1073741825
  - first: {x: -1, y: 5, z: 0}
    second:
      serializedVersion: 2
      m_TileIndex: 23
      m_TileSpriteIndex: 23
      m_TileMatrixIndex: 0
      m_TileColorIndex: 44
      m_TileObjectToInstantiateIndex: 65535
      m_AllTileFlags: 1073741825
  - first: {x: 0, y: 5, z: 0}
    second:
      serializedVersion: 2
      m_TileIndex: 31
      m_TileSpriteIndex: 31
      m_TileMatrixIndex: 0
      m_TileColorIndex: 44
      m_TileObjectToInstantiateIndex: 65535
      m_AllTileFlags: 1073741825
  - first: {x: 1, y: 5, z: 0}
    second:
      serializedVersion: 2
      m_TileIndex: 1
      m_TileSpriteIndex: 1
      m_TileMatrixIndex: 0
      m_TileColorIndex: 44
      m_TileObjectToInstantiateIndex: 65535
      m_AllTileFlags: 1073741825
  - first: {x: 2, y: 5, z: 0}
    second:
      serializedVersion: 2
      m_TileIndex: 2
      m_TileSpriteIndex: 2
      m_TileMatrixIndex: 0
      m_TileColorIndex: 44
      m_TileObjectToInstantiateIndex: 65535
      m_AllTileFlags: 1073741825
  - first: {x: 3, y: 5, z: 0}
    second:
      serializedVersion: 2
      m_TileIndex: 25
      m_TileSpriteIndex: 25
      m_TileMatrixIndex: 0
      m_TileColorIndex: 44
      m_TileObjectToInstantiateIndex: 65535
      m_AllTileFlags: 1073741825
  - first: {x: 4, y: 5, z: 0}
    second:
      serializedVersion: 2
      m_TileIndex: 32
      m_TileSpriteIndex: 32
      m_TileMatrixIndex: 0
      m_TileColorIndex: 44
      m_TileObjectToInstantiateIndex: 65535
      m_AllTileFlags: 1073741825
  - first: {x: 5, y: 5, z: 0}
    second:
      serializedVersion: 2
      m_TileIndex: 33
      m_TileSpriteIndex: 33
      m_TileMatrixIndex: 0
      m_TileColorIndex: 44
      m_TileObjectToInstantiateIndex: 65535
      m_AllTileFlags: 1073741825
  - first: {x: 6, y: 5, z: 0}
    second:
      serializedVersion: 2
      m_TileIndex: 34
      m_TileSpriteIndex: 34
      m_TileMatrixIndex: 0
      m_TileColorIndex: 44
      m_TileObjectToInstantiateIndex: 65535
      m_AllTileFlags: 1073741825
  - first: {x: -3, y: 6, z: 0}
    second:
      serializedVersion: 2
      m_TileIndex: 13
      m_TileSpriteIndex: 13
      m_TileMatrixIndex: 0
      m_TileColorIndex: 44
      m_TileObjectToInstantiateIndex: 65535
      m_AllTileFlags: 1073741825
  - first: {x: -2, y: 6, z: 0}
    second:
      serializedVersion: 2
      m_TileIndex: 14
      m_TileSpriteIndex: 14
      m_TileMatrixIndex: 0
      m_TileColorIndex: 44
      m_TileObjectToInstantiateIndex: 65535
      m_AllTileFlags: 1073741825
  - first: {x: -1, y: 6, z: 0}
    second:
      serializedVersion: 2
      m_TileIndex: 26
      m_TileSpriteIndex: 26
      m_TileMatrixIndex: 0
      m_TileColorIndex: 44
      m_TileObjectToInstantiateIndex: 65535
      m_AllTileFlags: 1073741825
  - first: {x: 0, y: 6, z: 0}
    second:
      serializedVersion: 2
      m_TileIndex: 0
      m_TileSpriteIndex: 0
      m_TileMatrixIndex: 0
      m_TileColorIndex: 44
      m_TileObjectToInstantiateIndex: 65535
      m_AllTileFlags: 1073741825
  - first: {x: 1, y: 6, z: 0}
    second:
      serializedVersion: 2
      m_TileIndex: 24
      m_TileSpriteIndex: 24
      m_TileMatrixIndex: 0
      m_TileColorIndex: 44
      m_TileObjectToInstantiateIndex: 65535
      m_AllTileFlags: 1073741825
  - first: {x: 2, y: 6, z: 0}
    second:
      serializedVersion: 2
      m_TileIndex: 17
      m_TileSpriteIndex: 17
      m_TileMatrixIndex: 0
      m_TileColorIndex: 44
      m_TileObjectToInstantiateIndex: 65535
      m_AllTileFlags: 1073741825
  - first: {x: 3, y: 6, z: 0}
    second:
      serializedVersion: 2
      m_TileIndex: 16
      m_TileSpriteIndex: 16
      m_TileMatrixIndex: 0
      m_TileColorIndex: 44
      m_TileObjectToInstantiateIndex: 65535
      m_AllTileFlags: 1073741825
  - first: {x: 4, y: 6, z: 0}
    second:
      serializedVersion: 2
      m_TileIndex: 15
      m_TileSpriteIndex: 15
      m_TileMatrixIndex: 0
      m_TileColorIndex: 44
      m_TileObjectToInstantiateIndex: 65535
      m_AllTileFlags: 1073741825
  - first: {x: 5, y: 6, z: 0}
    second:
      serializedVersion: 2
      m_TileIndex: 27
      m_TileSpriteIndex: 27
      m_TileMatrixIndex: 0
      m_TileColorIndex: 44
      m_TileObjectToInstantiateIndex: 65535
      m_AllTileFlags: 1073741825
  - first: {x: 6, y: 6, z: 0}
    second:
      serializedVersion: 2
      m_TileIndex: 28
      m_TileSpriteIndex: 28
      m_TileMatrixIndex: 0
      m_TileColorIndex: 44
      m_TileObjectToInstantiateIndex: 65535
      m_AllTileFlags: 1073741825
  m_AnimatedTiles: {}
  m_TileAssetArray:
  - m_RefCount: 1
    m_Data: {fileID: 11400000, guid: 12cefc3d6e7afaa4a9773193ab3f1906, type: 2}
  - m_RefCount: 1
    m_Data: {fileID: 11400000, guid: 190b47729ab0a09479824ab7651960d6, type: 2}
  - m_RefCount: 1
    m_Data: {fileID: 11400000, guid: 8c578168891e0a341af3aef6fbe3e8d6, type: 2}
  - m_RefCount: 1
    m_Data: {fileID: 11400000, guid: b2ce0188596ab234a8a0a6464b7aed79, type: 2}
  - m_RefCount: 1
    m_Data: {fileID: 11400000, guid: 8357c92313bd35d41926c5c4fa3bba32, type: 2}
  - m_RefCount: 1
    m_Data: {fileID: 11400000, guid: a8052abb48a8ac34c9d3479ad2ba4c31, type: 2}
  - m_RefCount: 1
    m_Data: {fileID: 11400000, guid: 3b7033cb5e526ec4aa0c63607b5e3920, type: 2}
  - m_RefCount: 1
    m_Data: {fileID: 11400000, guid: e264063076daae24ea6b16d4924401f7, type: 2}
  - m_RefCount: 1
    m_Data: {fileID: 11400000, guid: e5e3f8e3a0bad8a448d255f085210f4a, type: 2}
  - m_RefCount: 1
    m_Data: {fileID: 11400000, guid: fb96a1e41c79aee4b9fabaad7f1c771f, type: 2}
  - m_RefCount: 1
    m_Data: {fileID: 11400000, guid: aabdbc956b87570488f40d54d3f50b60, type: 2}
  - m_RefCount: 1
    m_Data: {fileID: 11400000, guid: 89e81eadbc903aa4d8cdcd2b760ef2af, type: 2}
  - m_RefCount: 1
    m_Data: {fileID: 11400000, guid: 2f78c7e00bad1c24f8cc941a49521332, type: 2}
  - m_RefCount: 1
    m_Data: {fileID: 11400000, guid: cfd06dea402908c49ab865b6877dc0a4, type: 2}
  - m_RefCount: 1
    m_Data: {fileID: 11400000, guid: 95d6c86be86d18443a93776a8ed5dc94, type: 2}
  - m_RefCount: 1
    m_Data: {fileID: 11400000, guid: e22eec819cc0cf1418b9ceab2897f127, type: 2}
  - m_RefCount: 1
    m_Data: {fileID: 11400000, guid: 7a7e67b0818480d429e9a7310b599fa1, type: 2}
  - m_RefCount: 1
    m_Data: {fileID: 11400000, guid: 03aaab1f84e5b71479b16983d91f24e4, type: 2}
  - m_RefCount: 1
    m_Data: {fileID: 11400000, guid: d1ff9cdaf5349914184146330a5d3519, type: 2}
  - m_RefCount: 1
    m_Data: {fileID: 11400000, guid: e1ca1ac90670cdf44adb5f526903ec3c, type: 2}
  - m_RefCount: 1
    m_Data: {fileID: 11400000, guid: 3cb81a02a5d18094b8bd163c8f370464, type: 2}
  - m_RefCount: 1
    m_Data: {fileID: 11400000, guid: bada806be4062b64dbf86c706535f937, type: 2}
  - m_RefCount: 1
    m_Data: {fileID: 11400000, guid: 8d19740399091e645aa74c9f6eb82f25, type: 2}
  - m_RefCount: 1
    m_Data: {fileID: 11400000, guid: 70c3025ba1f9c9549a5872e9bd910c23, type: 2}
  - m_RefCount: 1
    m_Data: {fileID: 11400000, guid: 12feaccb4c0ac824ab7a46d78eb86414, type: 2}
  - m_RefCount: 1
    m_Data: {fileID: 11400000, guid: 470bcc3dd59748b4f843f2a5448c43f3, type: 2}
  - m_RefCount: 1
    m_Data: {fileID: 11400000, guid: 0f9b1cdcffa9bc4428f4f2387ff340ec, type: 2}
  - m_RefCount: 1
    m_Data: {fileID: 11400000, guid: 3d055b9a9ef52e24b9e2cf1780de3a0c, type: 2}
  - m_RefCount: 1
    m_Data: {fileID: 11400000, guid: ce7443b004f80a44793c317930002140, type: 2}
  - m_RefCount: 1
    m_Data: {fileID: 11400000, guid: 2bb05785469bc7e4b8a9bbbdd5225bfd, type: 2}
  - m_RefCount: 1
    m_Data: {fileID: 11400000, guid: ef4408e6984401245af92a4239902af3, type: 2}
  - m_RefCount: 1
    m_Data: {fileID: 11400000, guid: 652a087438581594abbb8457d2b3ef45, type: 2}
  - m_RefCount: 1
    m_Data: {fileID: 11400000, guid: 2b561bd71331dd540bb929fcb14e72c5, type: 2}
  - m_RefCount: 1
    m_Data: {fileID: 11400000, guid: f1c2ea00a1622c34898e2f5028211271, type: 2}
  - m_RefCount: 1
    m_Data: {fileID: 11400000, guid: 9c6a06a33857a3d4d978adbeb528cddd, type: 2}
  - m_RefCount: 1
    m_Data: {fileID: 11400000, guid: a4680ef5e81eee546811bc091c79d397, type: 2}
  - m_RefCount: 1
    m_Data: {fileID: 11400000, guid: f4ac42050d19fca4981b95d9437cc8e0, type: 2}
  - m_RefCount: 1
    m_Data: {fileID: 11400000, guid: 70e4caad8cd0191438507038245660f0, type: 2}
  - m_RefCount: 1
    m_Data: {fileID: 11400000, guid: ac6090feac4debb49a9af8bc3ec29817, type: 2}
  - m_RefCount: 1
    m_Data: {fileID: 11400000, guid: 93a22d61461180e449a9f31a0b3d979b, type: 2}
  - m_RefCount: 1
    m_Data: {fileID: 11400000, guid: d10c46681afe2c943bcb2419823ca46c, type: 2}
  - m_RefCount: 1
    m_Data: {fileID: 11400000, guid: 1af69c9a39a83f74bb07e193d500652d, type: 2}
  - m_RefCount: 1
    m_Data: {fileID: 11400000, guid: c3400018d392509468157e4a755d4956, type: 2}
  - m_RefCount: 1
    m_Data: {fileID: 11400000, guid: 8315958c55b9ce24da0884be0c023223, type: 2}
  - m_RefCount: 1
    m_Data: {fileID: 11400000, guid: 1af74d346d816924d8d9ff471aea792f, type: 2}
  - m_RefCount: 1
    m_Data: {fileID: 11400000, guid: 85357451069c12645aacf4a720ce7aa0, type: 2}
  - m_RefCount: 1
    m_Data: {fileID: 11400000, guid: 5e33801f73abbde4a99968a12ee59765, type: 2}
  - m_RefCount: 1
    m_Data: {fileID: 11400000, guid: 2a0722598ff48f34d91dc2f284c5ec95, type: 2}
  - m_RefCount: 1
    m_Data: {fileID: 11400000, guid: f380b58cbcc6a844b8b01b249b57175a, type: 2}
  - m_RefCount: 1
    m_Data: {fileID: 11400000, guid: 8d149fd1a161aa34d8c2cefb4fb2c9ab, type: 2}
  - m_RefCount: 1
    m_Data: {fileID: 11400000, guid: 0759aede4fbec53499aa5847b390bfe6, type: 2}
  - m_RefCount: 1
    m_Data: {fileID: 11400000, guid: 087bcaa14bcc7fc4881e1b3e36e446d1, type: 2}
  - m_RefCount: 1
    m_Data: {fileID: 11400000, guid: f23efeec81583364bb92b40584543f46, type: 2}
  - m_RefCount: 1
    m_Data: {fileID: 11400000, guid: a3a8f62ad6efeef4999b1cf8b733b463, type: 2}
  - m_RefCount: 1
    m_Data: {fileID: 11400000, guid: 683bbf7d6abda7148aa08ff2f6a45174, type: 2}
  - m_RefCount: 1
    m_Data: {fileID: 11400000, guid: 4659007d9108ebe46a47b4d711b9d81e, type: 2}
  m_TileSpriteArray:
  - m_RefCount: 1
    m_Data: {fileID: 927993097553186550, guid: aeddeba2e3fa9e146956c1c2d5be317c, type: 3}
  - m_RefCount: 1
    m_Data: {fileID: 1392951355754505436, guid: aeddeba2e3fa9e146956c1c2d5be317c,
      type: 3}
  - m_RefCount: 1
    m_Data: {fileID: 8910990751406325585, guid: aeddeba2e3fa9e146956c1c2d5be317c,
      type: 3}
  - m_RefCount: 1
    m_Data: {fileID: -3465396020797774062, guid: aeddeba2e3fa9e146956c1c2d5be317c,
      type: 3}
  - m_RefCount: 1
    m_Data: {fileID: -4184349233927357927, guid: aeddeba2e3fa9e146956c1c2d5be317c,
      type: 3}
  - m_RefCount: 1
    m_Data: {fileID: -4462308234912347132, guid: aeddeba2e3fa9e146956c1c2d5be317c,
      type: 3}
  - m_RefCount: 1
    m_Data: {fileID: -2403744278759228804, guid: aeddeba2e3fa9e146956c1c2d5be317c,
      type: 3}
  - m_RefCount: 1
    m_Data: {fileID: -4074849033302862716, guid: aeddeba2e3fa9e146956c1c2d5be317c,
      type: 3}
  - m_RefCount: 1
    m_Data: {fileID: -8851577035410836753, guid: aeddeba2e3fa9e146956c1c2d5be317c,
      type: 3}
  - m_RefCount: 1
    m_Data: {fileID: -4561775012439160316, guid: aeddeba2e3fa9e146956c1c2d5be317c,
      type: 3}
  - m_RefCount: 1
    m_Data: {fileID: 8531976829973395273, guid: aeddeba2e3fa9e146956c1c2d5be317c,
      type: 3}
  - m_RefCount: 1
    m_Data: {fileID: -7290488674372813182, guid: aeddeba2e3fa9e146956c1c2d5be317c,
      type: 3}
  - m_RefCount: 1
    m_Data: {fileID: -5857498297550101425, guid: aeddeba2e3fa9e146956c1c2d5be317c,
      type: 3}
  - m_RefCount: 1
    m_Data: {fileID: -5121848222371722623, guid: aeddeba2e3fa9e146956c1c2d5be317c,
      type: 3}
  - m_RefCount: 1
    m_Data: {fileID: 7600908739969303854, guid: aeddeba2e3fa9e146956c1c2d5be317c,
      type: 3}
  - m_RefCount: 1
    m_Data: {fileID: 7591298198093155101, guid: aeddeba2e3fa9e146956c1c2d5be317c,
      type: 3}
  - m_RefCount: 1
    m_Data: {fileID: 8537199414715526849, guid: aeddeba2e3fa9e146956c1c2d5be317c,
      type: 3}
  - m_RefCount: 1
    m_Data: {fileID: 6508138034557363822, guid: aeddeba2e3fa9e146956c1c2d5be317c,
      type: 3}
  - m_RefCount: 1
    m_Data: {fileID: -958325456994894687, guid: aeddeba2e3fa9e146956c1c2d5be317c,
      type: 3}
  - m_RefCount: 1
    m_Data: {fileID: 4057040116962537845, guid: aeddeba2e3fa9e146956c1c2d5be317c,
      type: 3}
  - m_RefCount: 1
    m_Data: {fileID: 4057953068192542133, guid: aeddeba2e3fa9e146956c1c2d5be317c,
      type: 3}
  - m_RefCount: 1
    m_Data: {fileID: 4703752962619983605, guid: aeddeba2e3fa9e146956c1c2d5be317c,
      type: 3}
  - m_RefCount: 1
    m_Data: {fileID: 1128031818531261122, guid: aeddeba2e3fa9e146956c1c2d5be317c,
      type: 3}
  - m_RefCount: 1
    m_Data: {fileID: 7857058317681049717, guid: aeddeba2e3fa9e146956c1c2d5be317c,
      type: 3}
  - m_RefCount: 1
    m_Data: {fileID: -1894111290370658083, guid: aeddeba2e3fa9e146956c1c2d5be317c,
      type: 3}
  - m_RefCount: 1
    m_Data: {fileID: 4522903503454431825, guid: aeddeba2e3fa9e146956c1c2d5be317c,
      type: 3}
  - m_RefCount: 1
    m_Data: {fileID: -1836821888531379542, guid: aeddeba2e3fa9e146956c1c2d5be317c,
      type: 3}
  - m_RefCount: 1
    m_Data: {fileID: 2220575397540430901, guid: aeddeba2e3fa9e146956c1c2d5be317c,
      type: 3}
  - m_RefCount: 1
    m_Data: {fileID: 7452203307522902742, guid: aeddeba2e3fa9e146956c1c2d5be317c,
      type: 3}
  - m_RefCount: 1
    m_Data: {fileID: 5939813472774274494, guid: aeddeba2e3fa9e146956c1c2d5be317c,
      type: 3}
  - m_RefCount: 1
    m_Data: {fileID: -7200721699095318782, guid: aeddeba2e3fa9e146956c1c2d5be317c,
      type: 3}
  - m_RefCount: 1
    m_Data: {fileID: -170346986477669798, guid: aeddeba2e3fa9e146956c1c2d5be317c,
      type: 3}
  - m_RefCount: 1
    m_Data: {fileID: -6619285431968080193, guid: aeddeba2e3fa9e146956c1c2d5be317c,
      type: 3}
  - m_RefCount: 1
    m_Data: {fileID: -6169868185266924148, guid: aeddeba2e3fa9e146956c1c2d5be317c,
      type: 3}
  - m_RefCount: 1
    m_Data: {fileID: 2815198748604504788, guid: aeddeba2e3fa9e146956c1c2d5be317c,
      type: 3}
  - m_RefCount: 1
    m_Data: {fileID: -5225646009653352225, guid: aeddeba2e3fa9e146956c1c2d5be317c,
      type: 3}
  - m_RefCount: 1
    m_Data: {fileID: 4879212759920947381, guid: aeddeba2e3fa9e146956c1c2d5be317c,
      type: 3}
  - m_RefCount: 1
    m_Data: {fileID: 8127569250548879818, guid: aeddeba2e3fa9e146956c1c2d5be317c,
      type: 3}
  - m_RefCount: 1
    m_Data: {fileID: 5596955432447530954, guid: aeddeba2e3fa9e146956c1c2d5be317c,
      type: 3}
  - m_RefCount: 1
    m_Data: {fileID: 6540747169928076606, guid: aeddeba2e3fa9e146956c1c2d5be317c,
      type: 3}
  - m_RefCount: 1
    m_Data: {fileID: -7186218237471389793, guid: aeddeba2e3fa9e146956c1c2d5be317c,
      type: 3}
  - m_RefCount: 1
    m_Data: {fileID: 6846498714518387265, guid: aeddeba2e3fa9e146956c1c2d5be317c,
      type: 3}
  - m_RefCount: 1
    m_Data: {fileID: 1018491348598012760, guid: aeddeba2e3fa9e146956c1c2d5be317c,
      type: 3}
  - m_RefCount: 1
    m_Data: {fileID: -6688111291920746054, guid: aeddeba2e3fa9e146956c1c2d5be317c,
      type: 3}
  - m_RefCount: 1
    m_Data: {fileID: 5913303809665940769, guid: aeddeba2e3fa9e146956c1c2d5be317c,
      type: 3}
  - m_RefCount: 1
    m_Data: {fileID: 3571160397290114098, guid: aeddeba2e3fa9e146956c1c2d5be317c,
      type: 3}
  - m_RefCount: 1
    m_Data: {fileID: 5243739152949413558, guid: aeddeba2e3fa9e146956c1c2d5be317c,
      type: 3}
  - m_RefCount: 1
    m_Data: {fileID: 814481979860439995, guid: aeddeba2e3fa9e146956c1c2d5be317c, type: 3}
  - m_RefCount: 1
    m_Data: {fileID: -3045448378115281780, guid: aeddeba2e3fa9e146956c1c2d5be317c,
      type: 3}
  - m_RefCount: 1
    m_Data: {fileID: -6305639638428062984, guid: aeddeba2e3fa9e146956c1c2d5be317c,
      type: 3}
  - m_RefCount: 1
    m_Data: {fileID: 5166241428682201127, guid: aeddeba2e3fa9e146956c1c2d5be317c,
      type: 3}
  - m_RefCount: 1
    m_Data: {fileID: 7176920423050957182, guid: aeddeba2e3fa9e146956c1c2d5be317c,
      type: 3}
  - m_RefCount: 1
    m_Data: {fileID: -4365767560474023995, guid: aeddeba2e3fa9e146956c1c2d5be317c,
      type: 3}
  - m_RefCount: 1
    m_Data: {fileID: -2733942318309075829, guid: aeddeba2e3fa9e146956c1c2d5be317c,
      type: 3}
  - m_RefCount: 1
    m_Data: {fileID: 6676915545371509343, guid: aeddeba2e3fa9e146956c1c2d5be317c,
      type: 3}
  - m_RefCount: 1
    m_Data: {fileID: 4073538108581407573, guid: aeddeba2e3fa9e146956c1c2d5be317c,
      type: 3}
  m_TileMatrixArray:
  - m_RefCount: 56
    m_Data:
      e00: 1
      e01: 0
      e02: 0
      e03: 0
      e10: 0
      e11: 1
      e12: 0
      e13: 0
      e20: 0
      e21: 0
      e22: 1
      e23: 0
      e30: 0
      e31: 0
      e32: 0
      e33: 1
  m_TileColorArray:
  - m_RefCount: 0
    m_Data: {r: 0, g: 0, b: 0, a: 0}
  - m_RefCount: 0
    m_Data: {r: 0, g: 0, b: 0, a: 0}
  - m_RefCount: 0
    m_Data: {r: 0, g: 0, b: 0, a: 0}
  - m_RefCount: 0
    m_Data: {r: 0, g: 0, b: 0, a: 0}
  - m_RefCount: 0
    m_Data: {r: 0, g: 0, b: 0, a: 0}
  - m_RefCount: 0
    m_Data: {r: 0, g: 0, b: 0, a: 0}
  - m_RefCount: 0
    m_Data: {r: 0, g: 0, b: 0, a: 0}
  - m_RefCount: 0
    m_Data: {r: 0, g: 0, b: 0, a: 0}
  - m_RefCount: 0
    m_Data: {r: 0, g: 0, b: 0, a: 0}
  - m_RefCount: 0
    m_Data: {r: 0, g: 0, b: 0, a: 0}
  - m_RefCount: 0
    m_Data: {r: 0, g: 0, b: 0, a: 0}
  - m_RefCount: 0
    m_Data: {r: 0, g: 0, b: 0, a: 0}
  - m_RefCount: 0
    m_Data: {r: 0, g: 0, b: 0, a: 0}
  - m_RefCount: 0
    m_Data: {r: 0, g: 0, b: 0, a: 0}
  - m_RefCount: 0
    m_Data: {r: 0, g: 0, b: 0, a: 0}
  - m_RefCount: 0
    m_Data: {r: 0, g: 0, b: 0, a: 0}
  - m_RefCount: 0
    m_Data: {r: 0, g: 0, b: 0, a: 0}
  - m_RefCount: 0
    m_Data: {r: 0, g: 0, b: 0, a: 0}
  - m_RefCount: 0
    m_Data: {r: 0, g: 0, b: 0, a: 0}
  - m_RefCount: 0
    m_Data: {r: 0, g: 0, b: 0, a: 0}
  - m_RefCount: 0
    m_Data: {r: 0, g: 0, b: 0, a: 0}
  - m_RefCount: 0
    m_Data: {r: 0, g: 0, b: 0, a: 0}
  - m_RefCount: 0
    m_Data: {r: 0, g: 0, b: 0, a: 0}
  - m_RefCount: 0
    m_Data: {r: 0, g: 0, b: 0, a: 0}
  - m_RefCount: 0
    m_Data: {r: 0, g: 0, b: 0, a: 0}
  - m_RefCount: 0
    m_Data: {r: 0, g: 0, b: 0, a: 0}
  - m_RefCount: 0
    m_Data: {r: 0, g: 0, b: 0, a: 0}
  - m_RefCount: 0
    m_Data: {r: 0, g: 0, b: 0, a: 0}
  - m_RefCount: 0
    m_Data: {r: 0, g: 0, b: 0, a: 0}
  - m_RefCount: 0
    m_Data: {r: 0, g: 0, b: 0, a: 0}
  - m_RefCount: 0
    m_Data: {r: 0, g: 0, b: 0, a: 0}
  - m_RefCount: 0
    m_Data: {r: 0, g: 0, b: 0, a: 0}
  - m_RefCount: 0
    m_Data: {r: 0, g: 0, b: 0, a: 0}
  - m_RefCount: 0
    m_Data: {r: 0, g: 0, b: 0, a: 0}
  - m_RefCount: 0
    m_Data: {r: 0, g: 0, b: 0, a: 0}
  - m_RefCount: 0
    m_Data: {r: 0, g: 0, b: 0, a: 0}
  - m_RefCount: 0
    m_Data: {r: 0, g: 0, b: 0, a: 0}
  - m_RefCount: 0
    m_Data: {r: 0, g: 0, b: 0, a: 0}
  - m_RefCount: 0
    m_Data: {r: 0, g: 0, b: 0, a: 0}
  - m_RefCount: 0
    m_Data: {r: 0, g: 0, b: 0, a: 0}
  - m_RefCount: 0
    m_Data: {r: 0, g: 0, b: 0, a: 0}
  - m_RefCount: 0
    m_Data: {r: 0, g: 0, b: 0, a: 0}
  - m_RefCount: 0
    m_Data: {r: 0, g: 0, b: 0, a: 0}
  - m_RefCount: 0
    m_Data: {r: 0, g: 0, b: 0, a: 0}
  - m_RefCount: 56
    m_Data: {r: 1, g: 1, b: 1, a: 1}
  - m_RefCount: 0
    m_Data: {r: 0, g: 0, b: 0, a: 0}
  - m_RefCount: 0
    m_Data: {r: 0, g: 0, b: 0, a: 0}
  - m_RefCount: 0
    m_Data: {r: 0, g: 0, b: 0, a: 0}
  - m_RefCount: 0
    m_Data: {r: 0, g: 0, b: 0, a: 0}
  - m_RefCount: 0
    m_Data: {r: 0, g: 0, b: 0, a: 0}
  - m_RefCount: 0
    m_Data: {r: 0, g: 0, b: 0, a: 0}
  - m_RefCount: 0
    m_Data: {r: 0, g: 0, b: 0, a: 0}
  - m_RefCount: 0
    m_Data: {r: 0, g: 0, b: 0, a: 0}
  - m_RefCount: 0
    m_Data: {r: 0, g: 0, b: 0, a: 0}
  - m_RefCount: 0
    m_Data: {r: 0, g: 0, b: 0, a: 0}
  - m_RefCount: 0
    m_Data: {r: 0, g: 0, b: 0, a: 0}
  m_TileObjectToInstantiateArray: []
  m_AnimationFrameRate: 1
  m_Color: {r: 1, g: 1, b: 1, a: 1}
  m_Origin: {x: -3, y: -2, z: 0}
  m_Size: {x: 10, y: 9, z: 1}
  m_TileAnchor: {x: 0.5, y: 0.5, z: 0}
  m_TileOrientation: 0
  m_TileOrientationMatrix:
    e00: 1
    e01: 0
    e02: 0
    e03: 0
    e10: 0
    e11: 1
    e12: 0
    e13: 0
    e20: 0
    e21: 0
    e22: 1
    e23: 0
    e30: 0
    e31: 0
    e32: 0
    e33: 1
--- !u!483693784 &137610996573498369
TilemapRenderer:
  m_ObjectHideFlags: 0
  m_CorrespondingSourceObject: {fileID: 0}
  m_PrefabInstance: {fileID: 0}
  m_PrefabAsset: {fileID: 0}
  m_GameObject: {fileID: 4907356462965374099}
  m_Enabled: 0
  m_CastShadows: 0
  m_ReceiveShadows: 0
  m_DynamicOccludee: 0
  m_MotionVectors: 1
  m_LightProbeUsage: 0
  m_ReflectionProbeUsage: 0
  m_RayTracingMode: 0
  m_RenderingLayerMask: 1
  m_RendererPriority: 0
  m_Materials:
  - {fileID: 10754, guid: 0000000000000000f000000000000000, type: 0}
  m_StaticBatchInfo:
    firstSubMesh: 0
    subMeshCount: 0
  m_StaticBatchRoot: {fileID: 0}
  m_ProbeAnchor: {fileID: 0}
  m_LightProbeVolumeOverride: {fileID: 0}
  m_ScaleInLightmap: 1
  m_ReceiveGI: 1
  m_PreserveUVs: 0
  m_IgnoreNormalsForChartDetection: 0
  m_ImportantGI: 0
  m_StitchLightmapSeams: 1
  m_SelectedEditorRenderState: 0
  m_MinimumChartSize: 4
  m_AutoUVMaxDistance: 0.5
  m_AutoUVMaxAngle: 89
  m_LightmapParameters: {fileID: 0}
  m_SortingLayerID: 0
  m_SortingLayer: 0
  m_SortingOrder: 0
  m_ChunkSize: {x: 32, y: 32, z: 32}
  m_ChunkCullingBounds: {x: 0, y: 0, z: 0}
  m_MaxChunkCount: 16
  m_MaxFrameAge: 16
  m_SortOrder: 0
  m_Mode: 0
  m_DetectChunkCullingBounds: 0
  m_MaskInteraction: 0
--- !u!114 &5950079991804459113
MonoBehaviour:
  m_ObjectHideFlags: 0
  m_CorrespondingSourceObject: {fileID: 0}
  m_PrefabInstance: {fileID: 0}
  m_PrefabAsset: {fileID: 0}
  m_GameObject: {fileID: 0}
  m_Enabled: 1
  m_EditorHideFlags: 0
  m_Script: {fileID: 12395, guid: 0000000000000000e000000000000000, type: 0}
  m_Name: Palette Settings
  m_EditorClassIdentifier: 
  cellSizing: 0
